[{"id_mov":1,"fecha":"6/23/2017","descripcion":"","importe":4803553.0,"iban":"LV46 JGEI IM3Z OAIL O7DD H"},
{"id_mov":2,"fecha":"6/2/2017","descripcion":"","importe":2301749.62,"iban":"HU48 2338 7669 0181 1772 1472 3127"},
{"id_mov":3,"fecha":"3/31/2018","descripcion":"","importe":9156686.0,"iban":"LI90 3675 6BYQ OC7W 8IKJ 6"},
{"id_mov":4,"fecha":"12/27/2017","descripcion":"","importe":8503734.0,"iban":"BE05 0255 6715 5637"},
{"id_mov":5,"fecha":"7/16/2017","descripcion":"","importe":6232054.0,"iban":"IE85 ILCV 6720 7149 8686 90"},
{"id_mov":6,"fecha":"7/27/2017","descripcion":"","importe":6483628.94,"iban":"RS93 4806 5928 1752 9709 76"},
{"id_mov":7,"fecha":"3/7/2018","descripcion":"","importe":5522169.59,"iban":"KZ11 4134 0ZHA ERYF 6GON"},
{"id_mov":8,"fecha":"7/12/2017","descripcion":"","importe":6540314.0,"iban":"TR16 7022 6WW5 VOP2 XUSZ YUCR D6"},
{"id_mov":9,"fecha":"4/21/2018","descripcion":"","importe":4643393.0,"iban":"NL30 WDOG 6152 7920 14"},
{"id_mov":10,"fecha":"7/30/2017","descripcion":"","importe":9712396.0,"iban":"FR68 7098 7715 24T3 BDYH NHSH U21"},
{"id_mov":11,"fecha":"8/20/2017","descripcion":"","importe":4785434.0,"iban":"PL62 8782 5228 8430 0600 2648 5375"},
{"id_mov":12,"fecha":"6/18/2017","descripcion":"","importe":3840650.77,"iban":"AL41 0152 8318 6QW3 Q7KI 4Y2D HIIS"},
{"id_mov":13,"fecha":"11/9/2017","descripcion":"","importe":1652467.72,"iban":"PL10 6538 5020 1319 5578 8304 9757"},
{"id_mov":14,"fecha":"5/5/2018","descripcion":"","importe":4480034.0,"iban":"IL76 9131 1338 3199 7739 038"},
{"id_mov":15,"fecha":"10/26/2017","descripcion":"","importe":868525.35,"iban":"MR47 0504 7353 6000 5688 2354 027"},
{"id_mov":16,"fecha":"3/16/2018","descripcion":"","importe":9882771.0,"iban":"LB43 3991 NHYO NGBC IICN JC6Q KODI"},
{"id_mov":17,"fecha":"7/26/2017","descripcion":"","importe":7368620.0,"iban":"SA30 79ZA SZOH MISD LY4V RMI3"},
{"id_mov":18,"fecha":"12/1/2017","descripcion":"","importe":3788930.05,"iban":"TN02 1291 2323 1191 8189 9761"},
{"id_mov":19,"fecha":"2/23/2018","descripcion":"","importe":2362000.0,"iban":"LV32 FTMD TPGQ BIV2 W5RD R"},
{"id_mov":20,"fecha":"1/1/2018","descripcion":"","importe":4059320.0,"iban":"FR30 0706 4300 86U4 VJYU 1UCB 811"},
{"id_mov":21,"fecha":"12/12/2017","descripcion":"","importe":4500650.0,"iban":"FR63 9710 2178 35BM CWT2 ULHP X64"},
{"id_mov":22,"fecha":"5/5/2018","descripcion":"","importe":5287184.0,"iban":"AD60 7994 8971 K67L DNA1 3WJV"},
{"id_mov":23,"fecha":"2/1/2018","descripcion":"","importe":7446969.53,"iban":"FR57 6998 1007 73PP HKTV MQR5 Q12"},
{"id_mov":24,"fecha":"11/25/2017","descripcion":"","importe":6932560.0,"iban":"FR47 9794 8426 99PV M09G C9JY W31"},
{"id_mov":25,"fecha":"6/24/2017","descripcion":"","importe":6719665.45,"iban":"PT97 8911 4070 2585 9766 3450 1"},
{"id_mov":26,"fecha":"11/30/2017","descripcion":"","importe":5319878.54,"iban":"FR96 3946 5067 97OB ONY9 XVTL E14"},
{"id_mov":27,"fecha":"12/21/2017","descripcion":"","importe":1885861.0,"iban":"FR52 2752 5285 55GS 3QOJ 3ABD G13"},
{"id_mov":28,"fecha":"3/15/2018","descripcion":"","importe":1528829.82,"iban":"DE29 7344 6240 3515 6761 90"},
{"id_mov":29,"fecha":"11/2/2017","descripcion":"","importe":6608484.0,"iban":"FR79 5514 8521 83AN QDOI UZQA 972"},
{"id_mov":30,"fecha":"6/12/2017","descripcion":"","importe":7435046.0,"iban":"MK70 550F OOQT DAXQ X22"},
{"id_mov":31,"fecha":"4/5/2018","descripcion":"","importe":2411096.96,"iban":"GB78 MPLC 9614 5050 7323 66"},
{"id_mov":32,"fecha":"7/14/2017","descripcion":"","importe":2195361.0,"iban":"ES45 6763 7996 1776 8584 7854"},
{"id_mov":33,"fecha":"3/25/2018","descripcion":"","importe":3007925.46,"iban":"KZ57 492Z FZ91 7DTN 7KKZ"},
{"id_mov":34,"fecha":"10/15/2017","descripcion":"","importe":8927502.0,"iban":"FR30 0312 0421 07ML 3BLW EVNR U20"},
{"id_mov":35,"fecha":"8/3/2017","descripcion":"","importe":7311406.96,"iban":"MD34 RRJW L0HO KXPB D5WP D9S2"},
{"id_mov":36,"fecha":"6/26/2017","descripcion":"","importe":8306604.46,"iban":"MT46 SOOU 1206 0KZM 6ALK WSTY QGLZ M51"},
{"id_mov":37,"fecha":"10/1/2017","descripcion":"","importe":7656070.0,"iban":"IS08 1069 4634 6680 2668 0351 30"},
{"id_mov":38,"fecha":"5/31/2017","descripcion":"","importe":270969.33,"iban":"LV61 XJYO 7BIO RBAC HBGL R"},
{"id_mov":39,"fecha":"12/28/2017","descripcion":"","importe":259535.91,"iban":"TR23 4554 07CL XZWA FITJ 1SMX BY"},
{"id_mov":40,"fecha":"6/7/2017","descripcion":"","importe":192417.49,"iban":"MU46 TAEI 1168 1148 4085 4245 702P UG"},
{"id_mov":41,"fecha":"6/16/2017","descripcion":"","importe":6505242.14,"iban":"DO67 470V 7680 8169 8529 6280 1328"},
{"id_mov":42,"fecha":"12/25/2017","descripcion":"","importe":557858.3,"iban":"AT81 6947 7178 6112 7497"},
{"id_mov":43,"fecha":"7/7/2017","descripcion":"","importe":8297225.69,"iban":"FI43 5682 2540 8212 83"},
{"id_mov":44,"fecha":"1/12/2018","descripcion":"","importe":1513512.46,"iban":"HR72 6817 4938 4314 7136 3"},
{"id_mov":45,"fecha":"3/24/2018","descripcion":"","importe":8123918.86,"iban":"AL92 2015 2787 ZDEE UK8O XJWT HNPZ"},
{"id_mov":46,"fecha":"2/20/2018","descripcion":"","importe":3609970.4,"iban":"TN66 9443 3688 2779 3926 8833"},
{"id_mov":47,"fecha":"11/30/2017","descripcion":"","importe":6644440.86,"iban":"GI41 QITS DMDO KIFC THFQ BXG"},
{"id_mov":48,"fecha":"7/3/2017","descripcion":"","importe":2558996.0,"iban":"GR60 2263 565X SLLS PLCR 0EUY MME"},
{"id_mov":49,"fecha":"7/16/2017","descripcion":"","importe":9064212.0,"iban":"MD63 8XPG NYFY CXLS QGMY DBRV"},
{"id_mov":50,"fecha":"4/1/2018","descripcion":"","importe":6898319.02,"iban":"SA77 80LG EK1Y HWPD N7YX QSRT"},
{"id_mov":51,"fecha":"4/6/2018","descripcion":"","importe":1702979.0,"iban":"VG88 DTBJ 2232 3439 0891 5998"},
{"id_mov":52,"fecha":"10/6/2017","descripcion":"","importe":1577848.0,"iban":"FR54 6665 3052 13R1 SW69 Q9OS H54"},
{"id_mov":53,"fecha":"8/20/2017","descripcion":"","importe":2129080.1,"iban":"FR38 1172 8638 48NE XUA4 ILFQ Y69"},
{"id_mov":54,"fecha":"8/27/2017","descripcion":"","importe":8361426.0,"iban":"PK88 PLBI REGG 5INM RMDV UG6I"},
{"id_mov":55,"fecha":"11/10/2017","descripcion":"","importe":8529149.0,"iban":"FR11 1145 1291 57AR JWIS QEYM A35"},
{"id_mov":56,"fecha":"10/30/2017","descripcion":"","importe":9481634.0,"iban":"KW94 YJHK YBKD ZNGN UL6V YFNK VATG ZZ"},
{"id_mov":57,"fecha":"11/26/2017","descripcion":"","importe":1323490.53,"iban":"GE58 FO09 7871 9481 6966 32"},
{"id_mov":58,"fecha":"5/9/2018","descripcion":"","importe":44035.63,"iban":"CY19 5101 6957 PNA2 FVMT CZLW QJA9"},
{"id_mov":59,"fecha":"9/19/2017","descripcion":"","importe":8815265.0,"iban":"GL78 2870 5938 1695 23"},
{"id_mov":60,"fecha":"2/4/2018","descripcion":"","importe":1010871.88,"iban":"GL92 9080 1170 9054 20"},
{"id_mov":61,"fecha":"8/28/2017","descripcion":"","importe":6344743.0,"iban":"KZ20 095A 1NRR ZCVE XEDD"},
{"id_mov":62,"fecha":"6/14/2017","descripcion":"","importe":5105531.14,"iban":"HU23 6151 5520 1335 7710 0581 0502"},
{"id_mov":63,"fecha":"9/13/2017","descripcion":"","importe":6140538.77,"iban":"FR83 4824 8534 96FN 2EJE QR0D P83"},
{"id_mov":64,"fecha":"7/9/2017","descripcion":"","importe":6118184.21,"iban":"FI03 8700 4678 9770 41"},
{"id_mov":65,"fecha":"7/17/2017","descripcion":"","importe":4717817.0,"iban":"LT41 0982 8240 0798 5365"},
{"id_mov":66,"fecha":"4/19/2018","descripcion":"","importe":3343878.0,"iban":"PL82 1809 6422 4963 8469 6993 8361"},
{"id_mov":67,"fecha":"3/8/2018","descripcion":"","importe":8066308.73,"iban":"BG58 EIKU 3472 58SS TY5N GN"},
{"id_mov":68,"fecha":"4/3/2018","descripcion":"","importe":8298795.57,"iban":"GT08 87GS GL5D WB2Z 7CFF LZ16 N8Q2"},
{"id_mov":69,"fecha":"10/30/2017","descripcion":"","importe":5518934.0,"iban":"FR04 8053 4085 024H KGE6 FLTW R81"},
{"id_mov":70,"fecha":"9/29/2017","descripcion":"","importe":4683632.0,"iban":"DE48 7348 1006 1812 8221 07"},
{"id_mov":71,"fecha":"12/31/2017","descripcion":"","importe":5849276.0,"iban":"IS19 3618 1114 3591 9871 8837 78"},
{"id_mov":72,"fecha":"7/22/2017","descripcion":"","importe":723660.21,"iban":"MD89 WUGJ ORTP QWLZ EX5Y OOM5"},
{"id_mov":73,"fecha":"6/20/2017","descripcion":"","importe":8723778.0,"iban":"ME09 9771 1428 4959 0912 27"},
{"id_mov":74,"fecha":"5/18/2018","descripcion":"","importe":2448691.26,"iban":"RO82 EIZZ HNHU RDEY Q7YD 65CU"},
{"id_mov":75,"fecha":"8/21/2017","descripcion":"","importe":9035858.0,"iban":"GI95 HQAQ GFDC MFKJ SZDX SOL"},
{"id_mov":76,"fecha":"5/18/2018","descripcion":"","importe":4790752.0,"iban":"ES65 9169 6004 1137 9995 1541"},
{"id_mov":77,"fecha":"10/1/2017","descripcion":"","importe":3696567.98,"iban":"AD49 1040 1762 W35H 24TW 9DWZ"},
{"id_mov":78,"fecha":"10/10/2017","descripcion":"","importe":8837922.0,"iban":"SI42 5932 0148 6492 780"},
{"id_mov":79,"fecha":"8/3/2017","descripcion":"","importe":1043288.19,"iban":"FR40 7570 7153 02KM RFEM 9KJD O76"},
{"id_mov":80,"fecha":"2/6/2018","descripcion":"","importe":4091700.49,"iban":"FR34 5505 8873 48JX WPZK PZV6 X62"},
{"id_mov":81,"fecha":"1/17/2018","descripcion":"","importe":6606481.59,"iban":"FR19 9276 5022 02GZ DTSR JDFQ C05"},
{"id_mov":82,"fecha":"9/12/2017","descripcion":"","importe":2477897.73,"iban":"LV73 YWSB OYP5 QWYW RLFH M"},
{"id_mov":83,"fecha":"6/20/2017","descripcion":"","importe":4632922.09,"iban":"IE79 WYLB 9886 3941 7145 04"},
{"id_mov":84,"fecha":"4/7/2018","descripcion":"","importe":9041569.0,"iban":"PK89 IVDW KUEM MRNJ IQBU ZIJJ"},
{"id_mov":85,"fecha":"1/24/2018","descripcion":"","importe":9467029.0,"iban":"DE92 0451 0875 8379 5750 04"},
{"id_mov":86,"fecha":"2/19/2018","descripcion":"","importe":3209309.83,"iban":"LT25 2566 2961 4114 6145"},
{"id_mov":87,"fecha":"10/4/2017","descripcion":"","importe":9004505.0,"iban":"FR47 3710 6351 35G2 MMXF OG82 W31"},
{"id_mov":88,"fecha":"11/21/2017","descripcion":"","importe":1566046.47,"iban":"DE89 1467 6057 0800 8219 01"},
{"id_mov":89,"fecha":"10/24/2017","descripcion":"","importe":5631029.0,"iban":"SA25 5171 RAFM YCMY BMUJ GQXW"},
{"id_mov":90,"fecha":"9/2/2017","descripcion":"","importe":8654930.0,"iban":"VG32 YKAF 6044 4873 7627 9861"},
{"id_mov":91,"fecha":"4/1/2018","descripcion":"","importe":6075680.05,"iban":"SI12 4996 8463 5619 874"},
{"id_mov":92,"fecha":"9/18/2017","descripcion":"","importe":7275639.0,"iban":"FR09 3921 8055 19O5 K6C8 ISQE L10"},
{"id_mov":93,"fecha":"4/6/2018","descripcion":"","importe":6253629.42,"iban":"LT95 7557 9161 9857 2765"},
{"id_mov":94,"fecha":"6/1/2017","descripcion":"","importe":5599150.0,"iban":"PK19 ALAX L7Z1 TPFM LXSP DGJE"},
{"id_mov":95,"fecha":"9/15/2017","descripcion":"","importe":4935676.36,"iban":"FR52 6970 1062 605S KWCU XB3T 107"},
{"id_mov":96,"fecha":"11/30/2017","descripcion":"","importe":7498615.0,"iban":"SK38 5706 5281 3293 6311 0345"},
{"id_mov":97,"fecha":"12/27/2017","descripcion":"","importe":9831452.0,"iban":"FI18 2276 3869 9057 96"},
{"id_mov":98,"fecha":"9/19/2017","descripcion":"","importe":7184561.0,"iban":"MD54 HFVO FEDF BZWD MNMS PCAE"},
{"id_mov":99,"fecha":"5/6/2018","descripcion":"","importe":7875590.39,"iban":"NL07 TIZJ 8635 5025 78"},
{"id_mov":100,"fecha":"5/31/2017","descripcion":"","importe":8160336.71,"iban":"CH47 5693 7UNF 1IKU RUSQ J"},
{"id_mov":101,"fecha":"1/7/2018","descripcion":"","importe":1730358.61,"iban":"FR60 8887 2774 78F9 T3K3 YI9R O51"},
{"id_mov":102,"fecha":"8/26/2017","descripcion":"","importe":5430324.0,"iban":"FR59 0776 0796 29LS HVDO NWVG I93"},
{"id_mov":103,"fecha":"2/11/2018","descripcion":"","importe":8615895.0,"iban":"IL75 3443 1503 5669 0349 984"},
{"id_mov":104,"fecha":"6/25/2017","descripcion":"","importe":2902017.99,"iban":"GE43 KN37 6898 4111 9841 20"},
{"id_mov":105,"fecha":"5/23/2018","descripcion":"","importe":5368795.0,"iban":"RO29 TAKY NYMW DNPA A5DB DZIS"},
{"id_mov":106,"fecha":"10/25/2017","descripcion":"","importe":4468871.33,"iban":"GI58 OBXA VVPN EN0I 3KEP N2U"},
{"id_mov":107,"fecha":"3/10/2018","descripcion":"","importe":2138184.07,"iban":"BG17 MJIO 5625 97UU YEMD XW"},
{"id_mov":108,"fecha":"3/30/2018","descripcion":"","importe":4933294.0,"iban":"BE96 3455 8007 6711"},
{"id_mov":109,"fecha":"11/11/2017","descripcion":"","importe":8769620.0,"iban":"FR18 9222 9865 14QY 0LJ3 FJVM 171"},
{"id_mov":110,"fecha":"11/13/2017","descripcion":"","importe":2860529.82,"iban":"LB62 1350 UR2A RMTS RHV0 WH2F V8L8"},
{"id_mov":111,"fecha":"11/26/2017","descripcion":"","importe":6312103.78,"iban":"EE57 3245 6320 2666 2412"},
{"id_mov":112,"fecha":"6/10/2017","descripcion":"","importe":6543606.0,"iban":"IE02 BAFQ 6093 9800 5323 33"},
{"id_mov":113,"fecha":"4/19/2018","descripcion":"","importe":7150222.85,"iban":"FR84 7574 3467 72GL CNGS 1AQV W20"},
{"id_mov":114,"fecha":"7/11/2017","descripcion":"","importe":4554738.0,"iban":"LV69 QTTE 3WFR 5YV1 DOWJ D"},
{"id_mov":115,"fecha":"10/29/2017","descripcion":"","importe":9279599.0,"iban":"BR63 1386 4029 2414 9049 0629 415U L"},
{"id_mov":116,"fecha":"7/7/2017","descripcion":"","importe":6188541.0,"iban":"MU23 JHES 1769 6728 6963 5739 570Z HF"},
{"id_mov":117,"fecha":"12/7/2017","descripcion":"","importe":9775203.0,"iban":"CY58 3178 2399 0O3Q 2SDH TIFQ OF6I"},
{"id_mov":118,"fecha":"3/6/2018","descripcion":"","importe":8594163.0,"iban":"FR23 9815 0287 72NA M5WY CXDS K48"},
{"id_mov":119,"fecha":"8/9/2017","descripcion":"","importe":5707757.0,"iban":"DE54 1990 9481 5795 1540 29"},
{"id_mov":120,"fecha":"4/13/2018","descripcion":"","importe":3775755.15,"iban":"IT42 G917 7423 1892 GLCS 0U6N FOW"},
{"id_mov":121,"fecha":"4/27/2018","descripcion":"","importe":8013226.0,"iban":"FR69 1464 9128 50OW 9ZYP Q0OA 449"},
{"id_mov":122,"fecha":"2/18/2018","descripcion":"","importe":8646826.0,"iban":"KZ93 081W ZPVA CKH6 AXS5"},
{"id_mov":123,"fecha":"10/6/2017","descripcion":"","importe":697003.0,"iban":"GB31 YJCQ 9193 8758 2004 03"},
{"id_mov":124,"fecha":"7/14/2017","descripcion":"","importe":7315991.0,"iban":"AZ97 RLNI JHIU ZJPU 0JWD XU8O 3GVX"},
{"id_mov":125,"fecha":"4/24/2018","descripcion":"","importe":4425735.77,"iban":"PL95 1151 3305 3727 4913 7733 9718"},
{"id_mov":126,"fecha":"9/15/2017","descripcion":"","importe":685790.12,"iban":"LB58 7878 KZMD XOYC CRR4 S2VZ VRTV"},
{"id_mov":127,"fecha":"7/21/2017","descripcion":"","importe":2688222.0,"iban":"FR17 7334 0984 52ZC 7SKT PW7K 382"},
{"id_mov":128,"fecha":"9/13/2017","descripcion":"","importe":6962258.0,"iban":"RS52 6322 3598 0048 3973 76"},
{"id_mov":129,"fecha":"10/20/2017","descripcion":"","importe":616856.53,"iban":"GT07 H8VL MGJG NYZT 4IQM CZ9P JOOS"},
{"id_mov":130,"fecha":"7/21/2017","descripcion":"","importe":1249065.52,"iban":"EE89 9561 1411 0651 1308"},
{"id_mov":131,"fecha":"3/7/2018","descripcion":"","importe":8276263.18,"iban":"AZ70 ZZCZ OICX MJWE 1EH0 SIFX ND5M"},
{"id_mov":132,"fecha":"8/12/2017","descripcion":"","importe":1243241.56,"iban":"NL64 PVCG 6793 9962 08"},
{"id_mov":133,"fecha":"6/16/2017","descripcion":"","importe":7639437.78,"iban":"BA63 8361 1372 0933 1601"},
{"id_mov":134,"fecha":"5/24/2018","descripcion":"","importe":4023693.0,"iban":"AL24 4995 5089 KA3Q OCCC CNGT 7V1D"},
{"id_mov":135,"fecha":"10/30/2017","descripcion":"","importe":7663610.84,"iban":"BA59 6529 7015 2737 1843"},
{"id_mov":136,"fecha":"8/4/2017","descripcion":"","importe":9427269.0,"iban":"VG87 RRGV 3675 7490 9034 5288"},
{"id_mov":137,"fecha":"10/23/2017","descripcion":"","importe":6313055.87,"iban":"IT23 E987 0571 918O WIGM NWBS UHY"},
{"id_mov":138,"fecha":"5/22/2018","descripcion":"","importe":8719802.0,"iban":"BG67 ZBJY 4181 11W3 AQKV 4A"},
{"id_mov":139,"fecha":"8/14/2017","descripcion":"","importe":9287281.0,"iban":"TR23 9023 6TCF DPGY NUCC R1AC T1"},
{"id_mov":140,"fecha":"1/23/2018","descripcion":"","importe":2873238.0,"iban":"SI48 9186 4334 4776 016"},
{"id_mov":141,"fecha":"11/19/2017","descripcion":"","importe":7014325.96,"iban":"CZ28 2878 6170 8923 9616 4572"},
{"id_mov":142,"fecha":"2/16/2018","descripcion":"","importe":5339241.0,"iban":"SE72 1715 2789 7742 1481 6409"},
{"id_mov":143,"fecha":"7/21/2017","descripcion":"","importe":594584.61,"iban":"AT27 9217 1533 4668 5534"},
{"id_mov":144,"fecha":"11/9/2017","descripcion":"","importe":6281374.0,"iban":"ME33 1011 2341 0603 0544 86"},
{"id_mov":145,"fecha":"8/28/2017","descripcion":"","importe":5351815.0,"iban":"IT41 M573 1805 233D DG86 PTEM MWR"},
{"id_mov":146,"fecha":"9/25/2017","descripcion":"","importe":6187083.0,"iban":"SK85 9309 6526 6365 3483 4195"},
{"id_mov":147,"fecha":"11/29/2017","descripcion":"","importe":3302902.76,"iban":"BR85 9793 1388 6487 0492 1999 863V 1"},
{"id_mov":148,"fecha":"6/16/2017","descripcion":"","importe":7083125.63,"iban":"MD48 7U0Q GRBX 4JKO QJRB HALT"},
{"id_mov":149,"fecha":"9/25/2017","descripcion":"","importe":1132080.01,"iban":"NL30 DSMO 1169 3596 81"},
{"id_mov":150,"fecha":"12/21/2017","descripcion":"","importe":1275736.25,"iban":"SK54 9060 0381 6629 0183 7606"}]