[{"id":1,"first_name":"Kaia","last_name":"Blackburne","email":"kblackburne0@meetup.com","password":"vBuTNP05x"},
{"id":2,"first_name":"Lisette","last_name":"Edwin","email":"ledwin1@clickbank.net","password":"zcb9J3f4GCBY"},
{"id":3,"first_name":"Dorella","last_name":"Coping","email":"dcoping2@51.la","password":"yR2HfreX"},
{"id":4,"first_name":"Kelcie","last_name":"Manolov","email":"kmanolov3@cnbc.com","password":"RB5w1X5"},
{"id":5,"first_name":"Hugibert","last_name":"Winborn","email":"hwinborn4@opera.com","password":"O0aVKFjO"},
{"id":6,"first_name":"Gae","last_name":"MacFayden","email":"gmacfayden5@aboutads.info","password":"Q15EHOyG"},
{"id":7,"first_name":"Chrissie","last_name":"Waring","email":"cwaring6@purevolume.com","password":"p662cbzw7L6"},
{"id":8,"first_name":"Tami","last_name":"Kropach","email":"tkropach7@desdev.cn","password":"JoQuV9dpB54z"},
{"id":9,"first_name":"Bud","last_name":"Genese","email":"bgenese8@seesaa.net","password":"TzQLokS"},
{"id":10,"first_name":"Dacy","last_name":"Philps","email":"dphilps9@samsung.com","password":"RjjiPLw2"},
{"id":11,"first_name":"Bordie","last_name":"Balmer","email":"bbalmera@w3.org","password":"DItbn6A"},
{"id":12,"first_name":"Petronella","last_name":"Harrod","email":"pharrodb@ft.com","password":"ohC0Yj"},
{"id":13,"first_name":"Goraud","last_name":"Faraker","email":"gfarakerc@bbc.co.uk","password":"8t3Hg4hrZZ"},
{"id":14,"first_name":"Alexandros","last_name":"MacNeilage","email":"amacneilaged@thetimes.co.uk","password":"n7WVgt5KqF"},
{"id":15,"first_name":"Corly","last_name":"Scarre","email":"cscarree@state.gov","password":"iRGSi81c"},
{"id":16,"first_name":"Nicky","last_name":"Bowen","email":"nbowenf@lulu.com","password":"8cItj4M"},
{"id":17,"first_name":"Fleurette","last_name":"Goldin","email":"fgolding@qq.com","password":"OETcZ6Bn"},
{"id":18,"first_name":"Hewe","last_name":"Schellig","email":"hschelligh@si.edu","password":"3uEkH3W5D"},
{"id":19,"first_name":"Mikaela","last_name":"Van Waadenburg","email":"mvanwaadenburgi@istockphoto.com","password":"S8f73EqD"},
{"id":20,"first_name":"Pablo","last_name":"Walthall","email":"pwalthallj@php.net","password":"npuHhTc7A"}]